<?xml version="1.0" encoding="UTF-8" standalone="no"?>
<!-- Created with Inkscape (http://www.inkscape.org/) -->

<svg
   xmlns:dc="http://purl.org/dc/elements/1.1/"
   xmlns:cc="http://creativecommons.org/ns#"
   xmlns:rdf="http://www.w3.org/1999/02/22-rdf-syntax-ns#"
   xmlns:svg="http://www.w3.org/2000/svg"
   xmlns="http://www.w3.org/2000/svg"
   xmlns:xlink="http://www.w3.org/1999/xlink"
   xmlns:sodipodi="http://sodipodi.sourceforge.net/DTD/sodipodi-0.dtd"
   xmlns:inkscape="http://www.inkscape.org/namespaces/inkscape"
   width="64px"
   height="64px"
   id="svg2985"
   version="1.1"
   inkscape:version="0.48.3.1 r9886"
   sodipodi:docname="klock.svg"
   inkscape:export-filename="/home/lopezl/public_html/klock.png"
   inkscape:export-xdpi="1687.5"
   inkscape:export-ydpi="1687.5">
  <defs
     id="defs2987">
    <linearGradient
       id="linearGradient3020">
      <stop
         style="stop-color:#000000;stop-opacity:1;"
         offset="0"
         id="stop3022" />
      <stop
         style="stop-color:#434343;stop-opacity:1;"
         offset="1"
         id="stop3024" />
    </linearGradient>
    <linearGradient
       id="linearGradient3008">
      <stop
         style="stop-color:#000000;stop-opacity:1;"
         offset="0"
         id="stop3010" />
      <stop
         id="stop3016"
         offset="0.83507949"
         style="stop-color:#2f312d;stop-opacity:1;" />
      <stop
         style="stop-color:#000000;stop-opacity:1;"
         offset="1"
         id="stop3012" />
    </linearGradient>
    <linearGradient
       id="linearGradient2995">
      <stop
         style="stop-color:#caced2;stop-opacity:1;"
         offset="0"
         id="stop2997" />
      <stop
         style="stop-color:#f9f9f9;stop-opacity:1"
         offset="1"
         id="stop2999" />
    </linearGradient>
    <radialGradient
       inkscape:collect="always"
       xlink:href="#linearGradient2995"
       id="radialGradient3001"
       cx="30.158701"
       cy="26.212246"
       fx="30.158701"
       fy="26.212246"
       r="32.090908"
       gradientUnits="userSpaceOnUse"
       gradientTransform="matrix(0.95999445,1.0396174,-0.90892702,0.83931353,23.600108,-24.990163)" />
    <radialGradient
       inkscape:collect="always"
       xlink:href="#linearGradient3008"
       id="radialGradient3014"
       cx="16.887562"
       cy="52.905949"
       fx="16.887562"
       fy="52.905949"
       r="18.90909"
       gradientTransform="matrix(0.02750376,1.1390005,-0.99962225,0.03133821,67.69422,32.288899)"
       gradientUnits="userSpaceOnUse" />
    <radialGradient
       inkscape:collect="always"
       xlink:href="#linearGradient3020"
       id="radialGradient3026"
       cx="44.733608"
       cy="50.19672"
       fx="44.733608"
       fy="50.19672"
       r="15.545454"
       gradientTransform="matrix(1.0000001,0.92816561,-0.7522871,0.5355446,28.69604,-23.654229)"
       gradientUnits="userSpaceOnUse" />
  </defs>
  <sodipodi:namedview
     id="base"
     pagecolor="#ffffff"
     bordercolor="#666666"
     borderopacity="1.0"
     inkscape:pageopacity="0.0"
     inkscape:pageshadow="2"
     inkscape:zoom="11"
     inkscape:cx="25.463466"
     inkscape:cy="31.065633"
     inkscape:current-layer="layer1"
     showgrid="true"
     inkscape:document-units="px"
     inkscape:grid-bbox="true"
     inkscape:snap-object-midpoints="true"
     inkscape:snap-bbox="false"
     inkscape:bbox-nodes="false"
     inkscape:object-paths="false"
     inkscape:snap-nodes="false"
     inkscape:window-width="1215"
     inkscape:window-height="972"
     inkscape:window-x="65"
     inkscape:window-y="24"
     inkscape:window-maximized="1" />
  <metadata
     id="metadata2990">
    <rdf:RDF>
      <cc:Work
         rdf:about="">
        <dc:format>image/svg+xml</dc:format>
        <dc:type
           rdf:resource="http://purl.org/dc/dcmitype/StillImage" />
      </cc:Work>
    </rdf:RDF>
  </metadata>
  <g
     id="layer1"
     inkscape:label="Layer 1"
     inkscape:groupmode="layer">
    <path
       sodipodi:type="arc"
       style="fill:url(#radialGradient3014);fill-opacity:1;stroke:none"
       id="clockFrame"
       sodipodi:cx="15.272727"
       sodipodi:cy="53.18182"
       sodipodi:rx="18.90909"
       sodipodi:ry="21.545454"
       d="m 34.181817,53.18182 a 18.90909,21.545454 0 1 1 -37.81818,0 18.90909,21.545454 0 1 1 37.81818,0 z"
       transform="matrix(1.6923078,0,0,1.4852321,6.1538454,-46.987346)" />
    <path
       sodipodi:type="arc"
       style="fill:#ffffff;fill-opacity:1;stroke:url(#radialGradient3026)"
       id="bezel"
       sodipodi:cx="44.81818"
       sodipodi:cy="39.909092"
       sodipodi:rx="15.545454"
       sodipodi:ry="12.636364"
       d="m 60.363634,39.909092 a 15.545454,12.636364 0 1 1 0,-0.0021"
       sodipodi:start="0"
       sodipodi:end="6.2830175"
       sodipodi:open="true"
       transform="matrix(1.6491229,0,0,2.0287769,-41.910685,-48.966645)" />
    <path
       sodipodi:type="arc"
       style="fill:none;stroke:#000000"
       id="centerRing"
       sodipodi:cx="31.545454"
       sodipodi:cy="31.818182"
       sodipodi:rx="31.545454"
       sodipodi:ry="31.818182"
       d="m 63.090908,31.818182 a 31.545454,31.818182 0 1 1 0,-0.0053"
       sodipodi:start="0"
       sodipodi:end="6.2830175"
       sodipodi:open="true"
       transform="matrix(0.03278312,0,0,0.03250212,30.96584,30.965842)" />
    <path
       style="fill:none;stroke:#ff0000;stroke-width:1.5;stroke-linecap:butt;stroke-linejoin:miter;stroke-opacity:1"
       d="M 40.818182,43.90909 19.636364,15.090909"
       id="secondHand"
       inkscape:connector-curvature="0"
       sodipodi:nodetypes="cc" />
    <path
       sodipodi:type="arc"
       style="fill:#ff0000;fill-opacity:1;stroke:none"
       id="secondBulb"
       sodipodi:cx="40.954544"
       sodipodi:cy="44.68182"
       sodipodi:rx="0.86363637"
       sodipodi:ry="0.86363637"
       d="m 41.81818,44.68182 a 0.86363637,0.86363637 0 1 1 0,-1.45e-4"
       sodipodi:start="0"
       sodipodi:end="6.2830175"
       sodipodi:open="true"
       transform="matrix(1.8947368,0,0,1.8947368,-35.870811,-39.660288)" />
    <path
       style="fill:none;stroke:#000000;stroke-width:1.5;stroke-linecap:butt;stroke-linejoin:miter;stroke-opacity:1"
       d="M 25.363637,32.90909 53,29"
       id="minuteHand"
       inkscape:connector-curvature="0"
       sodipodi:nodetypes="cc" />
    <path
       style="fill:none;stroke:#000000;stroke-width:1.5;stroke-linecap:butt;stroke-linejoin:miter;stroke-opacity:1"
       d="m 30.272727,38.272727 6,-22.363636"
       id="hourHand"
       inkscape:connector-curvature="0"
       sodipodi:nodetypes="cc" />
  </g>
</svg>
